<?xml version="1.0" encoding="utf-8"?>
<!-- Generator: Adobe Illustrator 17.0.0, SVG Export Plug-In . SVG Version: 6.00 Build 0)  -->
<!DOCTYPE svg PUBLIC "-//W3C//DTD SVG 1.1//EN" "http://www.w3.org/Graphics/SVG/1.1/DTD/svg11.dtd">
<svg version="1.1" id="Layer_1" xmlns="http://www.w3.org/2000/svg" xmlns:xlink="http://www.w3.org/1999/xlink" x="0px" y="0px"
	 width="381.076px" height="667.219px" viewBox="0 0 381.076 667.219" enable-background="new 0 0 381.076 667.219"
	 xml:space="preserve">
<polygon fill="#FFFFFF" points="94.934,333.609 381.076,47.467 333.609,0 47.467,286.143 0,333.609 47.467,381.076 333.609,667.219 
	381.076,619.752 "/>
</svg>
